learning rate,final train loss,final train accuracy,final test accuracy,training time in s
0.00000001,2.3493605,0.0916,0.0953,16.00683569908142
0.0000001,2.378368,0.07347273,0.0747,17.958078384399414
0.000001,2.393152,0.090672724,0.0899,16.11568570137024
0.00001,2.307794,0.10427273,0.1031,16.590038061141968
0.0001,2.1390624,0.2773091,0.2775,17.03169536590576
0.001,0.6967064,0.8204727,0.8301,17.426728010177612
0.01,0.2586378,0.9259091,0.928,16.71666932106018
0.1,0.06838455,0.9788727,0.9677,20.06755566596985
1.0,0.06403849,0.9805091,0.9642,18.267720699310303
10.0,2.3275275,0.09798182,0.0974,19.422950506210327
100.0,32.819336,0.09849091,0.0958,16.92423987388611
1000.0,nan,0.09898182,0.098,16.73284387588501
10000.0,3110.4087,0.10250909,0.101,18.543562173843384
100000.0,nan,0.09898182,0.098,19.44605016708374
1000000.0,nan,0.09898182,0.098,16.707628965377808
10000000.0,nan,0.09898182,0.098,18.705969095230103