\relax 
\providecommand\hyper@newdestlabel[2]{}
\providecommand\HyperFirstAtBeginDocument{\AtBeginDocument}
\HyperFirstAtBeginDocument{\ifx\hyper@anchor\@undefined
\global\let\oldcontentsline\contentsline
\gdef\contentsline#1#2#3#4{\oldcontentsline{#1}{#2}{#3}}
\global\let\oldnewlabel\newlabel
\gdef\newlabel#1#2{\newlabelxx{#1}#2}
\gdef\newlabelxx#1#2#3#4#5#6{\oldnewlabel{#1}{{#2}{#3}}}
\AtEndDocument{\ifx\hyper@anchor\@undefined
\let\contentsline\oldcontentsline
\let\newlabel\oldnewlabel
\fi}
\fi}
\global\let\hyper@last\relax 
\gdef\HyperFirstAtBeginDocument#1{#1}
\providecommand\HyField@AuxAddToFields[1]{}
\providecommand\HyField@AuxAddToCoFields[2]{}
\providecommand \exsheets@question@property [3]{}
\providecommand \exsheets@save@number [2]{}
\providecommand \exsheets@sum@of@points [1]{}
\providecommand \exsheets@sum@of@bonus [1]{}
\providecommand \exsheets@used@id [2]{}

\exsheets@used@id {1}{1}
\exsheets@save@number {1}{-0-1}
\babel@aux{english}{}
\exsheets@question@property {1}{counter}{1.1}
\exsheets@question@property {1}{points}{6}
\exsheets@used@id {2}{2}
\exsheets@save@number {2}{-0-2}
\exsheets@question@property {2}{counter}{1.2}
\exsheets@question@property {2}{points}{6}
\exsheets@used@id {3}{3}
\exsheets@save@number {3}{-0-3}
\exsheets@question@property {3}{counter}{1.3}
\exsheets@question@property {3}{points}{8}
\exsheets@sum@of@points {20}
\exsheets@sum@of@bonus {0}
\gdef \numberofquestions {3}
